30,30,30,30,30,30,30,30,30,30,30,30,30,46,0,0,37,30,30,30,30,30,30,30,30,30,30,30,30,30
30,30,30,30,30,30,30,30,30,30,30,30,30,44,0,4,37,30,30,30,30,30,30,30,30,30,30,30,30,30
30,30,30,30,30,30,30,30,30,30,30,30,30,44,0,0,36,30,30,30,30,30,30,30,30,30,30,30,30,30
30,30,30,30,30,30,30,30,30,30,30,30,30,46,0,0,36,30,30,30,30,30,30,30,30,30,30,30,30,30
30,30,30,30,30,30,30,30,30,30,30,30,30,45,0,0,35,30,30,30,30,30,30,30,30,30,30,30,30,30
30,30,30,30,30,30,30,30,82,42,42,43,43,34,0,0,33,41,42,43,43,81,30,30,30,30,30,30,30,30
30,30,30,30,30,30,30,30,46,0,0,0,0,0,0,0,0,0,0,0,0,35,30,30,30,30,30,30,30,30
30,30,30,30,30,30,30,30,46,0,0,0,0,0,0,0,0,0,0,0,0,36,30,30,30,30,30,30,30,30
30,30,30,82,41,42,81,30,45,0,0,0,0,0,0,0,0,0,0,0,0,37,30,82,42,41,81,30,30,30
30,30,82,34,0,0,33,81,46,0,0,0,0,0,0,0,0,0,0,0,0,36,82,34,0,0,33,81,30,30
30,82,34,0,0,0,0,33,34,0,0,0,0,0,0,0,0,0,0,0,0,33,34,0,0,0,0,33,81,30
30,46,0,0,0,0,0,0,0,0,0,0,0,0,0,0,0,0,0,0,0,0,0,0,0,0,0,0,37,30
30,44,0,0,0,0,0,0,0,0,0,0,0,0,0,0,0,0,0,0,0,0,0,0,0,0,0,0,35,30
30,44,0,0,0,0,0,0,48,0,0,0,0,0,0,0,0,0,0,0,0,48,0,0,0,0,0,0,35,30
30,80,32,0,0,0,0,31,63,0,0,0,0,0,0,0,0,0,0,0,0,62,32,0,0,0,0,31,79,30
30,30,80,32,0,0,31,79,46,0,0,0,0,0,0,0,0,0,0,0,0,36,80,32,0,0,31,79,30,30
30,30,30,80,40,40,79,30,44,0,0,0,0,0,0,0,0,0,0,0,0,36,30,80,38,40,79,30,30,30
30,30,30,30,30,30,30,30,44,0,0,0,0,0,0,0,0,0,0,0,0,35,30,30,30,30,30,30,30,30
30,30,30,30,30,30,30,30,46,0,0,0,0,0,0,0,0,0,0,0,0,35,30,30,30,30,30,30,30,30
30,30,30,30,30,30,30,30,80,39,38,40,66,49,0,0,47,31,40,38,40,79,30,30,30,30,30,30,30,30
30,30,30,30,30,30,30,30,30,30,30,82,34,0,0,0,4,33,81,30,30,30,30,30,30,30,30,30,30,30
30,30,30,30,30,30,30,30,30,30,30,44,0,0,0,0,0,0,35,30,30,30,30,30,30,30,30,30,30,30
30,30,30,30,30,30,30,30,30,30,30,45,0,0,0,0,0,0,37,30,30,30,30,30,30,30,30,30,30,30
30,30,30,30,30,30,30,30,30,30,30,46,0,0,0,0,0,0,36,30,30,30,30,30,30,30,30,30,30,30
30,30,30,30,30,30,30,30,30,30,30,80,32,0,0,0,0,31,79,30,30,30,30,30,30,30,30,30,30,30
30,30,30,30,30,30,30,30,30,30,30,30,80,32,0,0,31,79,30,30,30,30,30,30,30,30,30,30,30,30
30,30,30,30,30,30,30,30,30,30,30,30,30,80,38,40,79,30,30,30,30,30,30,30,30,30,30,30,30,30
30,30,30,30,30,30,30,30,30,30,30,30,30,30,30,30,30,30,30,30,30,30,30,30,30,30,30,30,30,30
30,30,30,30,30,30,30,30,30,30,30,30,30,30,30,30,30,30,30,30,30,30,30,30,30,30,30,30,30,30
30,30,30,30,30,30,30,30,30,30,30,30,30,30,30,30,30,30,30,30,30,30,30,30,30,30,30,30,30,30
