30,82,42,41,41,43,41,43,43,41,43,42,42,34,0,0,33,41,42,43,42,43,42,42,41,41,42,43,81,30
30,46,0,0,0,0,0,0,0,0,0,0,0,0,0,0,0,0,0,0,0,0,0,0,0,0,0,0,37,30
30,46,0,0,0,0,0,0,0,0,0,0,0,0,0,0,0,0,0,0,0,0,0,0,0,0,0,0,35,30
30,46,0,0,0,0,0,0,0,0,0,0,0,0,0,0,0,0,0,0,0,0,0,0,0,0,0,0,37,30
30,45,0,0,0,0,0,0,0,0,0,0,0,0,0,0,0,0,0,0,0,0,0,0,0,0,0,0,36,30
30,44,0,0,0,0,0,0,0,0,0,0,0,0,0,0,0,0,0,0,0,0,0,0,0,0,0,0,37,30
30,46,0,0,0,0,0,0,0,0,0,0,0,0,0,47,49,0,0,0,0,0,0,0,0,0,0,0,36,30
30,44,47,51,51,49,0,0,47,51,51,51,51,68,49,0,0,55,0,0,0,0,0,0,0,0,0,0,35,30
30,46,0,0,0,0,0,0,0,0,0,0,0,50,0,0,0,0,47,49,0,0,0,0,0,0,0,0,37,30
30,44,0,0,0,0,0,0,0,0,0,0,48,0,0,0,0,0,0,0,47,51,51,51,51,51,51,49,37,30
30,46,0,0,0,0,0,0,0,0,0,0,53,0,0,0,0,0,0,0,0,0,0,0,0,0,0,0,37,30
30,44,0,0,0,0,0,0,0,0,0,0,53,0,0,0,0,0,0,0,0,0,0,0,0,0,0,0,37,30
30,44,0,0,0,0,0,0,0,0,0,0,53,0,0,0,0,0,0,0,0,0,0,0,0,0,0,0,35,30
30,46,0,0,0,0,0,0,0,0,0,0,53,0,0,0,0,0,0,0,0,0,0,0,0,0,0,0,35,30
30,44,0,0,0,0,0,0,0,0,0,0,50,0,0,0,0,0,0,0,0,0,0,0,0,0,0,0,35,30
30,45,0,0,0,0,0,0,0,0,0,0,0,0,0,0,0,0,0,0,0,0,0,4,0,0,0,0,35,30
30,44,0,0,0,0,0,0,0,0,0,0,0,55,0,0,0,0,47,51,51,51,51,57,0,0,0,0,36,30
30,44,0,0,0,0,0,0,0,0,0,0,0,0,55,0,0,55,0,0,0,0,0,53,0,0,0,0,35,30
30,45,0,0,0,0,0,0,0,0,0,0,0,0,0,47,49,0,0,0,0,0,0,53,0,0,0,0,36,30
30,45,0,0,0,0,0,0,0,0,0,0,0,0,0,0,0,0,0,0,0,0,0,53,0,0,0,0,35,30
30,45,0,0,0,0,0,0,0,0,0,0,0,0,0,0,0,0,56,49,0,0,47,59,0,0,0,0,35,30
30,46,0,0,0,0,0,0,0,0,0,0,0,0,0,0,0,0,53,0,0,0,0,0,0,0,0,0,36,30
30,45,0,0,0,0,0,0,0,0,0,0,0,0,0,0,0,0,53,0,0,0,0,0,0,0,0,0,35,30
30,46,0,0,0,0,0,0,0,0,0,0,0,0,0,0,0,0,53,0,0,0,0,0,0,0,0,0,37,30
30,45,0,0,0,0,0,0,0,0,0,0,0,0,0,0,0,0,53,0,0,0,0,0,0,0,0,0,37,30
30,46,0,0,0,0,0,0,0,0,0,0,0,0,0,0,0,0,53,0,0,0,0,0,0,0,0,0,36,30
30,46,0,0,0,0,0,0,0,0,0,0,0,0,0,0,0,0,50,0,0,0,0,0,0,0,0,0,36,30
30,80,39,38,38,39,38,38,40,38,39,38,38,40,40,39,38,39,39,40,40,40,40,39,40,40,39,39,79,30
30,30,30,30,30,30,30,30,30,30,30,30,30,30,30,30,30,30,30,30,30,30,30,30,30,30,30,30,30,30
30,30,30,30,30,30,30,30,30,30,30,30,30,30,30,30,30,30,30,30,30,30,30,30,30,30,30,30,30,30
