282,282,282,282,282,282,282,282,282,282,282,282,282,282,215,225,282,282,282,282,282,282,282,282,282,282,282,282,282,282
282,282,282,282,282,282,282,282,282,282,282,282,282,282,216,224,282,282,282,282,282,282,282,282,282,282,282,282,282,282
282,282,282,282,282,282,282,282,282,282,282,282,282,282,217,226,282,282,282,282,282,282,282,282,282,282,282,282,282,282
282,282,282,282,282,282,282,282,282,282,282,282,282,282,216,225,282,282,282,282,282,282,282,282,282,282,282,282,282,282
282,282,282,282,282,282,282,282,282,282,282,282,282,282,217,224,282,282,282,282,282,282,282,282,282,282,282,282,282,282
282,282,282,282,282,282,282,282,282,282,282,282,282,282,215,226,282,282,282,282,282,282,282,282,282,282,282,282,282,282
282,282,282,282,282,282,282,282,282,282,282,282,282,282,213,214,282,282,282,282,282,282,282,282,282,282,282,282,282,282
282,282,282,282,282,282,282,282,282,282,282,282,282,282,279,281,282,282,282,282,282,282,282,282,282,282,282,282,282,282
282,282,282,282,282,282,282,282,282,279,281,211,218,212,279,281,211,219,212,279,281,282,282,282,282,282,282,282,282,282
282,282,282,282,282,282,282,282,282,279,281,215,276,224,279,281,215,273,225,279,281,282,282,282,282,282,282,282,282,282
282,282,282,282,282,282,282,282,282,211,218,259,274,226,279,281,216,272,260,219,212,282,282,282,282,282,282,282,282,282
282,282,282,282,211,212,282,282,282,215,273,272,275,226,279,281,217,210,277,274,224,282,282,282,211,212,282,282,282,282
282,282,282,211,279,281,212,282,282,213,221,221,221,214,279,281,213,221,223,223,214,282,282,211,279,281,212,282,282,282
282,282,211,279,280,280,281,212,279,280,280,280,280,280,280,280,280,280,280,280,280,281,211,259,279,281,260,212,282,282
282,282,213,279,280,280,281,214,279,280,280,280,280,280,280,280,280,280,280,280,280,281,213,261,279,281,262,214,282,282
282,282,282,213,279,281,214,282,282,211,219,218,220,212,279,281,211,220,218,218,212,282,282,213,279,281,214,282,282,282
282,282,282,282,213,214,282,282,282,216,274,276,273,226,279,281,216,277,271,274,225,282,282,282,213,214,282,282,282,282
282,282,282,282,282,282,282,282,282,213,221,261,276,224,279,281,216,276,262,223,214,282,282,282,282,282,282,282,282,282
282,282,282,282,282,282,282,282,282,279,281,216,272,225,279,281,217,273,225,279,281,282,282,282,282,282,282,282,282,282
282,282,282,282,282,282,282,282,282,279,281,213,223,214,279,281,213,223,214,279,281,282,282,282,282,282,282,282,282,282
282,282,282,282,282,282,282,282,282,282,282,282,282,282,279,281,282,282,282,282,282,282,282,282,282,282,282,282,282,282
282,282,282,282,282,282,282,282,282,282,282,282,282,282,211,212,282,282,282,282,282,282,282,282,282,282,282,282,282,282
282,282,282,282,282,282,282,282,282,282,282,282,282,211,259,260,212,282,282,282,282,282,282,282,282,282,282,282,282,282
282,282,282,282,282,282,282,282,282,282,282,282,211,259,273,273,260,212,282,282,282,282,282,282,282,282,282,282,282,282
282,282,282,282,282,282,282,282,282,282,282,282,213,261,271,210,262,214,282,282,282,282,282,282,282,282,282,282,282,282
282,282,282,282,282,282,282,282,282,282,282,282,282,213,261,262,214,282,282,282,282,282,282,282,282,282,282,282,282,282
282,282,282,282,282,282,282,282,282,282,282,282,282,282,213,214,282,282,282,282,282,282,282,282,282,282,282,282,282,282
282,282,282,282,282,282,282,282,282,282,282,282,282,282,282,282,282,282,282,282,282,282,282,282,282,282,282,282,282,282
282,282,282,282,282,282,282,282,282,282,282,282,282,282,282,282,282,282,282,282,282,282,282,282,282,282,282,282,282,282
282,282,282,282,282,282,282,282,282,282,282,282,282,282,282,282,282,282,282,282,282,282,282,282,282,282,282,282,282,282
