282,282,282,282,282,282,282,282,282,282,282,282,282,282,282,282,282,282,282,282,282,282,282,282,282,282,282,282,282,282,282,282,282,282,282,282,282,282,282,282,282,282,282,282,282,282,282,282,282,282
282,282,282,282,282,282,282,282,282,282,282,282,282,282,282,282,282,282,282,282,282,282,282,282,282,282,282,282,282,282,282,282,282,282,282,282,282,282,282,282,282,282,282,282,282,282,282,282,282,282
282,282,282,282,282,282,282,282,282,282,282,282,282,282,282,282,282,282,282,282,282,282,282,282,282,282,282,282,282,282,282,282,282,282,282,282,282,282,282,282,282,282,282,282,282,282,282,282,282,282
282,282,211,220,219,220,219,212,282,282,211,219,220,220,219,220,212,282,282,211,219,218,218,219,212,282,282,220,218,220,219,220,219,212,282,282,211,218,218,219,219,219,220,220,220,219,219,212,282,282
282,282,217,279,280,280,281,224,282,282,215,274,272,277,276,277,225,282,282,216,274,272,274,210,260,220,212,261,275,275,271,273,273,260,219,220,259,210,275,276,273,271,276,273,272,271,277,224,282,282
220,220,259,279,280,280,281,226,282,282,215,271,279,280,281,273,224,282,282,215,274,275,262,221,221,221,214,217,271,273,278,272,272,262,221,221,221,221,223,223,261,277,279,280,280,281,274,225,282,282
221,221,261,279,280,280,281,260,219,220,217,275,279,280,281,272,260,220,219,259,271,273,226,282,282,282,282,217,274,271,275,278,276,225,282,282,282,282,282,282,217,272,279,280,280,281,271,260,212,282
282,282,216,279,280,280,281,262,223,223,215,272,279,280,281,274,271,274,210,275,275,271,226,282,282,282,282,217,278,275,278,275,273,224,282,282,282,282,282,282,215,276,279,280,280,281,272,273,226,282
282,282,217,277,278,273,273,224,282,282,217,271,273,273,274,272,271,271,277,274,271,262,214,282,282,282,282,216,278,277,276,210,210,225,282,282,282,282,282,282,217,275,279,280,280,281,276,278,224,282
282,282,213,223,223,223,221,214,282,282,215,274,279,280,280,281,271,272,271,274,262,214,282,282,282,211,219,259,278,276,277,276,278,260,219,219,212,282,282,282,215,273,278,272,274,274,275,277,226,282
282,282,282,282,282,282,282,282,282,282,216,271,279,280,280,281,275,275,277,276,224,282,282,282,282,215,273,271,278,274,278,274,278,276,278,273,226,282,282,282,217,274,272,278,278,273,272,273,224,282
282,282,282,282,282,282,282,282,282,282,215,278,271,278,277,277,210,210,278,274,226,282,282,282,282,215,278,275,274,210,277,210,273,276,273,210,226,282,282,282,217,210,278,273,273,276,277,210,224,282
282,282,282,282,282,282,282,282,282,282,213,221,223,223,223,223,223,223,223,223,214,282,282,282,282,215,276,275,274,277,210,210,276,273,277,271,225,282,282,282,216,273,272,272,275,272,273,276,226,282
282,282,282,215,260,219,212,282,282,282,282,282,282,282,282,282,282,282,282,215,224,282,282,282,282,213,221,221,223,223,223,223,223,261,271,272,226,282,282,282,217,275,275,275,278,262,223,223,214,282
282,282,282,216,277,210,260,218,212,282,282,282,282,282,282,282,282,282,282,213,253,212,282,282,282,282,282,282,282,282,282,282,282,217,278,274,226,282,282,211,259,274,278,274,210,225,282,282,282,282
282,282,282,216,210,273,277,274,260,282,282,282,282,282,282,282,282,282,282,282,216,225,282,282,282,282,282,282,282,282,282,282,282,282,278,274,260,220,218,259,275,278,275,278,272,224,282,282,282,282
282,282,282,217,262,223,221,261,210,275,260,218,219,219,220,218,212,282,282,282,215,224,282,282,282,282,282,282,282,282,282,282,282,282,282,210,262,221,221,261,271,277,272,272,277,226,282,282,282,282
282,282,282,217,225,282,282,217,274,276,273,276,278,272,276,275,225,282,282,282,213,253,212,282,282,282,282,282,211,212,282,282,282,282,282,282,282,282,282,217,273,278,271,278,210,224,282,282,282,282
282,282,282,217,225,282,282,217,210,279,280,280,281,271,210,273,224,282,282,282,282,217,225,282,282,282,211,219,259,260,219,212,282,282,282,282,282,282,282,215,273,274,275,278,277,224,282,282,282,282
282,282,282,217,260,220,219,259,276,279,280,280,281,273,273,277,225,282,282,282,282,213,253,212,282,211,259,276,276,210,277,260,212,282,282,282,282,282,282,217,271,272,275,276,274,225,282,282,282,282
282,282,282,216,278,210,272,273,272,279,280,280,281,272,274,271,225,282,282,282,282,282,215,225,282,215,278,273,279,281,272,272,226,282,282,282,282,282,282,213,223,223,223,223,261,260,212,282,282,282
282,282,282,217,276,210,274,273,273,279,280,280,281,275,274,278,260,282,282,282,282,282,215,260,220,259,278,279,280,280,281,271,260,211,218,219,212,282,282,282,282,282,282,282,213,261,260,212,282,282
282,282,282,217,273,277,271,277,276,274,271,275,272,272,274,272,278,282,282,282,282,282,282,223,223,261,274,279,280,280,281,277,262,213,223,261,226,282,282,282,282,282,282,282,282,213,261,225,282,282
282,282,282,215,273,278,275,210,271,210,272,210,271,276,210,277,262,282,282,282,282,282,282,282,282,215,278,272,279,281,271,277,224,282,282,216,224,282,282,282,282,282,282,282,282,282,215,225,282,282
282,282,282,217,210,275,272,274,272,278,272,271,272,273,276,271,228,282,282,282,282,282,282,282,282,213,261,272,277,277,277,262,214,282,282,215,260,219,212,282,282,282,282,282,282,282,218,212,282,282
282,282,282,216,277,274,278,272,275,276,271,273,273,278,277,276,242,218,220,218,212,282,282,282,282,282,213,223,261,262,223,214,282,282,282,216,272,277,224,282,282,282,282,282,282,282,277,226,282,282
282,282,282,217,210,274,276,271,271,275,277,276,277,272,273,210,213,223,223,223,214,282,282,282,282,282,282,282,213,214,282,282,282,282,282,216,278,277,260,218,219,259,272,272,277,273,276,226,282,282
282,282,282,216,272,275,271,277,210,278,274,272,276,271,278,271,224,282,282,216,276,274,276,282,282,282,282,282,282,282,282,282,282,282,282,217,273,275,275,275,278,274,276,276,277,274,271,225,282,282
282,282,282,216,272,278,277,278,271,273,262,223,223,261,272,274,224,282,282,217,272,278,276,282,282,282,282,282,282,282,282,282,282,282,282,215,271,275,275,273,277,276,276,276,271,278,274,226,282,282
282,282,282,217,277,271,271,275,273,271,224,282,282,216,277,278,225,282,282,217,278,276,273,273,273,282,282,282,282,282,282,282,282,282,282,216,276,210,274,274,277,210,271,279,280,281,278,225,282,282
282,282,282,216,276,278,273,274,271,276,226,282,282,216,275,271,224,282,282,217,271,272,274,271,275,282,282,282,282,282,282,282,282,282,282,215,276,271,262,221,221,261,276,279,280,281,277,226,282,282
282,282,282,217,262,221,221,223,223,261,260,218,219,259,262,223,214,282,282,215,273,274,275,274,277,278,275,260,219,220,212,282,282,282,282,216,277,276,225,282,282,215,276,279,280,281,277,224,282,282
282,282,282,211,212,282,282,282,282,216,277,273,275,276,282,282,282,282,282,217,272,274,272,274,276,277,276,272,210,277,226,282,282,282,282,215,277,277,225,282,282,215,273,210,276,275,278,226,282,282
282,282,282,215,224,282,282,282,282,217,274,273,274,274,282,282,282,282,282,217,210,278,278,272,274,279,280,281,278,210,225,282,282,282,282,215,271,276,260,220,219,259,271,210,274,275,278,226,282,282
282,282,282,217,226,282,282,282,282,213,223,221,223,221,282,282,282,282,282,213,223,261,271,272,276,279,280,281,210,275,260,219,218,218,211,259,210,210,273,274,276,272,278,262,221,223,261,224,282,282
282,282,282,217,224,282,282,282,282,282,282,282,282,282,282,282,282,282,282,282,282,216,274,275,274,279,280,281,272,272,272,262,221,221,215,273,274,273,276,277,273,272,274,224,282,282,217,225,282,282
282,282,282,216,260,220,212,282,282,282,282,282,282,282,282,282,211,212,282,282,282,216,274,272,278,210,273,273,271,274,278,226,282,282,216,275,273,271,210,210,277,277,275,226,282,282,217,225,282,282
282,282,282,215,273,278,260,212,282,282,282,282,282,282,282,211,259,226,282,282,282,213,221,261,271,278,274,210,272,277,210,224,282,282,217,274,210,272,272,272,273,275,278,260,218,220,259,226,282,282
282,282,282,216,276,272,272,260,212,282,282,282,282,282,211,259,271,260,212,282,282,282,282,213,223,261,272,275,272,272,277,226,282,282,217,275,274,272,274,278,271,274,277,276,279,280,281,224,282,282
282,282,282,216,273,274,272,278,260,212,282,282,282,211,259,210,278,278,225,282,282,282,282,282,282,213,223,223,223,223,221,214,282,282,215,272,278,278,275,271,272,272,273,210,279,280,281,225,282,282
282,282,282,216,278,276,271,274,275,260,219,220,218,259,210,272,210,274,260,212,282,282,282,282,282,282,282,282,282,282,282,282,282,282,216,276,277,277,262,223,221,261,277,277,279,280,281,225,282,282
282,282,282,217,275,210,277,277,271,274,273,274,278,276,275,271,272,276,273,226,282,282,282,282,282,282,282,282,282,282,282,282,282,282,213,223,223,223,214,282,282,215,278,278,271,278,276,225,282,282
282,282,282,213,261,274,273,271,276,278,271,278,271,210,273,276,275,274,210,224,282,282,282,282,282,282,282,282,282,282,282,282,282,282,282,282,282,282,282,282,282,213,221,223,223,221,223,214,282,282
282,282,282,282,213,261,272,274,279,280,280,280,280,281,278,272,262,223,261,224,282,282,282,282,282,282,282,282,282,282,282,282,282,282,282,282,282,282,282,282,282,282,282,282,282,282,282,282,282,282
282,282,282,282,282,213,261,210,279,280,280,280,280,281,276,262,214,282,217,225,282,282,282,282,282,282,282,282,282,282,282,282,282,282,282,282,282,282,282,282,282,282,282,282,282,282,282,282,282,282
282,282,282,282,282,282,213,261,277,278,278,278,271,274,262,214,282,282,217,226,282,282,282,282,282,282,282,282,282,282,282,282,282,282,282,282,282,282,282,282,282,282,282,282,282,282,282,282,282,282
282,282,282,282,282,282,282,213,261,277,278,275,274,262,214,282,282,282,217,224,218,220,218,218,219,219,220,218,218,218,218,220,220,219,219,219,218,218,218,220,219,219,219,219,218,220,219,220,220,219
282,282,282,282,282,282,282,282,213,223,223,223,221,214,282,282,282,282,213,214,223,221,223,221,223,221,221,223,223,223,223,223,223,223,223,223,221,223,223,221,221,223,223,223,223,221,221,223,223,221
282,282,282,282,282,282,282,282,282,282,282,282,282,282,282,282,282,282,282,282,282,282,282,282,282,282,282,282,282,282,282,282,282,282,282,282,282,282,282,282,282,282,282,282,282,282,282,282,282,282
282,282,282,282,282,282,282,282,282,282,282,282,282,282,282,282,282,282,282,282,282,282,282,282,282,282,282,282,282,282,282,282,282,282,282,282,282,282,282,282,282,282,282,282,282,282,282,282,282,282
